
If you are loading enthought_python with OTHER modules / software 
'module load enthought_python' FIRST then the rest of your software.
Installing libs/modules /for/ this python or using it /in conjuction/ with other 
compiled code requires gcc/4.8.2

loading csv files
running 10-fold cv
/data/apps/enthought_python/7.3.2/lib/python2.7/site-packages/sklearn/cross_validation.py:516: Warning: The least populated class in y has only 1 members, which is too few. The minimum number of labels for any class cannot be less than n_folds=10.
  % (min_labels, self.n_folds)), Warning)
/data/apps/enthought_python/7.3.2/lib/python2.7/site-packages/sklearn/metrics/classification.py:1074: UndefinedMetricWarning: Precision and F-score are ill-defined and being set to 0.0 in labels with no predicted samples.
  'precision', 'predicted', average, warn_for)
accuracy: 0.926926131851
             precision    recall  f1-score   support

       ADRD       0.79      0.86      0.83        22
AnserverBot       0.98      0.99      0.98       187
     Asroot       0.75      0.75      0.75         8
 BaseBridge       0.86      0.86      0.86       122
    BeanBot       1.00      0.75      0.86         8
     Bgserv       0.89      0.89      0.89         9
 CoinPirate       0.00      0.00      0.00         1
   CruseWin       0.50      1.00      0.67         2
    DogWars       0.00      0.00      0.00         1
DroidCoupon       0.00      0.00      0.00         1
DroidDeluxe       0.00      0.00      0.00         1
 DroidDream       0.94      0.94      0.94        16
DroidDreamLight       0.84      0.80      0.82        46
DroidKungFu1       1.00      0.97      0.99        34
DroidKungFu2       0.97      1.00      0.98        30
DroidKungFu3       0.99      1.00      0.99       309
DroidKungFu4       0.94      0.97      0.95        96
DroidKungFuSapp       1.00      1.00      1.00         3
DroidKungFuUpdate       0.00      0.00      0.00         1
   Endofday       0.00      0.00      0.00         1
FakeNetflix       0.00      0.00      0.00         1
 FakePlayer       0.86      1.00      0.92         6
  GGTracker       0.00      0.00      0.00         1
  GPSSMSSpy       1.00      1.00      1.00         6
 GamblerSMS       0.00      0.00      0.00         1
    Geinimi       0.90      0.90      0.90        69
GingerMaster       0.75      0.75      0.75         4
  GoldDream       0.81      0.89      0.85        47
     Gone60       0.90      1.00      0.95         9
   HippoSMS       0.67      0.50      0.57         4
     Jifake       0.00      0.00      0.00         1
       KMin       0.98      0.98      0.98        52
   LoveTrap       0.00      0.00      0.00         1
   NickyBot       0.00      0.00      0.00         1
   NickySpy       0.00      0.00      0.00         2
     Pjapps       0.91      0.86      0.88        58
   Plankton       0.82      0.82      0.82        11
 RogueLemon       0.00      0.00      0.00         2
RogueSPPush       1.00      0.89      0.94         9
    SndApps       0.71      1.00      0.83        10
     Spitmo       0.00      0.00      0.00         1
   Tapsnake       0.00      0.00      0.00         2
  Walkinwat       0.00      0.00      0.00         1
       YZHC       0.91      0.91      0.91        22
      Zitmo       0.00      0.00      0.00         1
      Zsone       1.00      1.00      1.00        12
  jSMSHider       0.94      1.00      0.97        16
      zHash       0.92      1.00      0.96        11

avg / total       0.92      0.93      0.92      1259

Confusion matrix, without normalization
[[ 19   0   0 ...,   0   0   0]
 [  0 185   0 ...,   0   0   0]
 [  0   0   6 ...,   0   0   0]
 ..., 
 [  0   0   0 ...,  12   0   0]
 [  0   0   0 ...,   0  16   0]
 [  0   0   0 ...,   0   0  11]]
Actual              |Predicted           
Pjapps              |Pjapps              
Geinimi             |Geinimi             
GoldDream           |GoldDream           
Geinimi             |Geinimi             
BaseBridge          |BaseBridge          
AnserverBot         |AnserverBot         
Geinimi             |DroidKungFu3        
DroidKungFu3        |DroidKungFu3        
DroidKungFu3        |DroidKungFu3        
KMin                |KMin                
BaseBridge          |BaseBridge          
BaseBridge          |BaseBridge          
BaseBridge          |BaseBridge          
DroidKungFu3        |DroidKungFu3        
DroidKungFu3        |DroidKungFu3        
KMin                |KMin                
AnserverBot         |AnserverBot         
Geinimi             |Geinimi             
DroidKungFu3        |DroidKungFu3        
AnserverBot         |AnserverBot         
DroidDreamLight     |DroidDreamLight     
DroidDreamLight     |DroidDreamLight     
BaseBridge          |BaseBridge          
Geinimi             |Geinimi             
AnserverBot         |AnserverBot         
YZHC                |YZHC                
DroidKungFu3        |DroidKungFu3        
BeanBot             |BeanBot             
DroidKungFu1        |DroidKungFu1        
DroidKungFu4        |DroidKungFu4        
Geinimi             |Geinimi             
DroidKungFu3        |DroidKungFu3        
DroidKungFu2        |DroidKungFu2        
Geinimi             |Geinimi             
Geinimi             |Geinimi             
BaseBridge          |BaseBridge          
DroidKungFu3        |DroidKungFu3        
KMin                |KMin                
AnserverBot         |AnserverBot         
YZHC                |YZHC                
RogueSPPush         |RogueSPPush         
KMin                |KMin                
KMin                |GingerMaster        
Zitmo               |DroidDream          
AnserverBot         |AnserverBot         
zHash               |zHash               
DroidKungFu3        |DroidKungFu3        
DroidKungFu3        |DroidKungFu3        
Pjapps              |zHash               
DroidKungFu1        |DroidKungFu1        
DroidDreamLight     |DroidDreamLight     
DroidDream          |DroidDream          
DroidKungFu3        |DroidKungFu3        
DroidKungFu3        |DroidKungFu3        
DroidKungFu3        |DroidKungFu3        
Geinimi             |Geinimi             
GoldDream           |GoldDream           
GoldDream           |GoldDream           
BaseBridge          |BaseBridge          
AnserverBot         |AnserverBot         
Zsone               |Zsone               
AnserverBot         |AnserverBot         
BaseBridge          |BaseBridge          
DroidKungFu3        |DroidKungFu3        
Bgserv              |Bgserv              
GoldDream           |Geinimi             
DroidKungFu2        |DroidKungFu2        
Geinimi             |Geinimi             
YZHC                |YZHC                
DroidKungFu3        |DroidKungFu3        
Pjapps              |Pjapps              
AnserverBot         |AnserverBot         
DroidKungFu3        |DroidKungFu3        
Geinimi             |Geinimi             
AnserverBot         |AnserverBot         
DroidKungFu4        |DroidKungFu4        
AnserverBot         |AnserverBot         
DroidKungFu3        |DroidKungFu3        
BaseBridge          |GoldDream           
Pjapps              |Pjapps              
DroidKungFu3        |DroidKungFu3        
Geinimi             |GoldDream           
SndApps             |SndApps             
Pjapps              |Pjapps              
YZHC                |YZHC                
Plankton            |AnserverBot         
YZHC                |YZHC                
DroidKungFu3        |DroidKungFu3        
DroidKungFu1        |DroidKungFu1        
KMin                |KMin                
DroidKungFu4        |DroidKungFu4        
GoldDream           |GoldDream           
BaseBridge          |BaseBridge          
DroidKungFu3        |DroidKungFu3        
YZHC                |YZHC                
Geinimi             |Geinimi             
DroidKungFu3        |DroidKungFu3        
KMin                |KMin                
AnserverBot         |AnserverBot         
GamblerSMS          |FakePlayer          
AnserverBot         |AnserverBot         
KMin                |KMin                
Geinimi             |Geinimi             
Zsone               |Zsone               
DroidKungFu4        |DroidKungFu4        
BaseBridge          |BaseBridge          
DroidKungFu3        |DroidKungFu3        
DroidKungFu3        |DroidKungFu3        
Pjapps              |Pjapps              
DroidDreamLight     |DroidDreamLight     
DroidKungFu3        |DroidKungFu3        
AnserverBot         |AnserverBot         
SndApps             |SndApps             
DroidKungFu3        |DroidKungFu3        
DroidKungFu3        |DroidKungFu3        
BaseBridge          |BaseBridge          
DroidKungFu3        |DroidKungFu3        
DroidKungFu3        |DroidKungFu3        
Pjapps              |Pjapps              
GoldDream           |GoldDream           
GoldDream           |GoldDream           
DroidKungFu4        |DroidKungFu4        
BaseBridge          |BaseBridge          
DroidKungFu3        |DroidKungFu3        
AnserverBot         |AnserverBot         
AnserverBot         |AnserverBot         
DroidKungFu4        |DroidKungFu4        
DroidKungFu3        |DroidKungFu3        
jSMSHider           |jSMSHider           
DroidKungFu3        |DroidKungFu3        
DroidKungFu2        |DroidKungFu2        
DroidKungFu3        |DroidKungFu3        
Plankton            |Plankton            
DroidDreamLight     |BaseBridge          
DroidKungFu3        |DroidKungFu3        
KMin                |KMin                
DroidKungFu2        |DroidKungFu2        
AnserverBot         |AnserverBot         
AnserverBot         |AnserverBot         
DroidKungFu3        |DroidKungFu3        
DroidDream          |DroidDream          
DroidKungFu3        |DroidKungFu3        
DroidKungFu3        |DroidKungFu3        
AnserverBot         |AnserverBot         
AnserverBot         |AnserverBot         
SndApps             |SndApps             
DroidKungFu3        |DroidKungFu3        
Pjapps              |Pjapps              
AnserverBot         |AnserverBot         
AnserverBot         |AnserverBot         
AnserverBot         |AnserverBot         
DroidKungFu4        |DroidKungFu4        
DroidKungFu4        |DroidKungFu4        
Zsone               |Zsone               
AnserverBot         |AnserverBot         
DroidKungFu3        |DroidKungFu3        
KMin                |KMin                
DroidKungFu3        |DroidKungFu3        
AnserverBot         |AnserverBot         
DroidKungFu3        |DroidKungFu3        
DroidKungFu4        |DroidKungFu4        
DroidKungFu3        |DroidKungFu3        
DroidDream          |DroidDream          
BaseBridge          |BaseBridge          
DroidKungFu4        |DroidKungFu4        
DroidKungFu2        |DroidKungFu2        
DroidKungFu3        |DroidKungFu3        
BaseBridge          |BaseBridge          
AnserverBot         |AnserverBot         
Pjapps              |YZHC                
Pjapps              |Pjapps              
SndApps             |SndApps             
AnserverBot         |AnserverBot         
BaseBridge          |BaseBridge          
DroidKungFu3        |DroidKungFu3        
DroidKungFu1        |DroidKungFu1        
KMin                |KMin                
BaseBridge          |DroidDreamLight     
DroidKungFu3        |DroidKungFu3        
Pjapps              |Pjapps              
AnserverBot         |AnserverBot         
DroidKungFu3        |DroidKungFu3        
BaseBridge          |BaseBridge          
AnserverBot         |AnserverBot         
DroidKungFu4        |DroidKungFu4        
AnserverBot         |AnserverBot         
DroidKungFu4        |DroidKungFu4        
HippoSMS            |HippoSMS            
BaseBridge          |BaseBridge          
DroidKungFu3        |DroidKungFu3        
BaseBridge          |BaseBridge          
DroidDreamLight     |DroidDreamLight     
AnserverBot         |AnserverBot         
zHash               |zHash               
KMin                |KMin                
Pjapps              |BaseBridge          
DroidKungFu4        |DroidKungFu4        
AnserverBot         |AnserverBot         
Pjapps              |Pjapps              
Gone60              |Gone60              
BaseBridge          |BaseBridge          
DroidKungFu3        |DroidKungFu3        
DroidKungFu3        |DroidKungFu3        
GoldDream           |GoldDream           
jSMSHider           |jSMSHider           
zHash               |zHash               
AnserverBot         |AnserverBot         
KMin                |KMin                
KMin                |KMin                
DroidKungFu3        |DroidKungFu3        
DroidKungFu3        |DroidKungFu3        
BaseBridge          |BaseBridge          
DroidKungFu3        |DroidKungFu3        
DroidKungFu2        |DroidKungFu2        
DroidDreamLight     |DroidKungFu4        
DroidKungFu3        |DroidKungFu3        
DroidKungFu3        |DroidKungFu3        
GoldDream           |GoldDream           
Geinimi             |Geinimi             
AnserverBot         |AnserverBot         
BaseBridge          |BaseBridge          
ADRD                |ADRD                
AnserverBot         |AnserverBot         
GoldDream           |Geinimi             
AnserverBot         |AnserverBot         
AnserverBot         |AnserverBot         
DroidKungFu3        |DroidKungFu3        
Pjapps              |ADRD                
ADRD                |ADRD                
Tapsnake            |SndApps             
KMin                |KMin                
DroidKungFu3        |DroidKungFu3        
jSMSHider           |jSMSHider           
AnserverBot         |AnserverBot         
YZHC                |YZHC                
BaseBridge          |BaseBridge          
RogueSPPush         |Pjapps              
CruseWin            |CruseWin            
Geinimi             |Geinimi             
KMin                |KMin                
Pjapps              |Pjapps              
GPSSMSSpy           |GPSSMSSpy           
DroidKungFu3        |DroidKungFu3        
AnserverBot         |AnserverBot         
BaseBridge          |BaseBridge          
GoldDream           |GoldDream           
DroidKungFu3        |DroidKungFu3        
AnserverBot         |AnserverBot         
Asroot              |Asroot              
DroidKungFu3        |DroidKungFu3        
DroidKungFu3        |DroidKungFu3        
DroidDreamLight     |DroidDreamLight     
AnserverBot         |AnserverBot         
DroidKungFu3        |DroidKungFu3        
Pjapps              |Pjapps              
AnserverBot         |AnserverBot         
DroidKungFu2        |DroidKungFu2        
Pjapps              |HippoSMS            
DroidKungFu1        |DroidKungFu1        
DroidKungFu3        |DroidKungFu3        
DroidKungFu3        |DroidKungFu3        
YZHC                |YZHC                
DroidKungFu4        |DroidKungFu4        
DroidKungFu2        |DroidKungFu2        
Geinimi             |Geinimi             
Asroot              |Asroot              
AnserverBot         |AnserverBot         
Geinimi             |Geinimi             
DroidKungFu3        |DroidKungFu3        
BeanBot             |BeanBot             
Gone60              |Gone60              
Plankton            |Plankton            
DroidKungFu3        |DroidKungFu3        
Pjapps              |Pjapps              
DroidKungFu3        |DroidKungFu3        
Pjapps              |Pjapps              
DroidKungFu4        |DroidKungFu4        
DroidKungFu3        |DroidKungFu3        
DroidDreamLight     |Plankton            
BaseBridge          |BaseBridge          
DroidKungFu4        |YZHC                
DroidKungFu3        |DroidKungFu3        
DroidDream          |DroidDream          
BaseBridge          |BaseBridge          
AnserverBot         |AnserverBot         
Gone60              |Gone60              
KMin                |KMin                
DroidKungFu3        |DroidKungFu3        
BaseBridge          |BaseBridge          
DroidKungFu4        |DroidKungFu4        
DroidKungFu3        |DroidKungFu3        
DroidKungFu3        |DroidKungFu3        
DroidKungFu4        |DroidKungFu4        
BaseBridge          |BaseBridge          
Geinimi             |Geinimi             
BaseBridge          |BaseBridge          
zHash               |zHash               
DroidKungFu3        |DroidKungFu3        
DroidDream          |Gone60              
AnserverBot         |AnserverBot         
Geinimi             |Geinimi             
BaseBridge          |BaseBridge          
AnserverBot         |AnserverBot         
DroidKungFu3        |DroidKungFu3        
BaseBridge          |BaseBridge          
DroidDreamLight     |DroidDreamLight     
DroidKungFu3        |DroidKungFu3        
DroidDreamLight     |DroidDreamLight     
BaseBridge          |BaseBridge          
Geinimi             |Geinimi             
Bgserv              |Bgserv              
DroidKungFu4        |DroidKungFu4        
KMin                |KMin                
AnserverBot         |AnserverBot         
Zsone               |Zsone               
AnserverBot         |AnserverBot         
DroidKungFu3        |DroidKungFu3        
AnserverBot         |AnserverBot         
jSMSHider           |jSMSHider           
DroidKungFu4        |DroidKungFu4        
DroidKungFu3        |DroidKungFu3        
AnserverBot         |AnserverBot         
AnserverBot         |AnserverBot         
DroidKungFu1        |DroidKungFu1        
Geinimi             |Geinimi             
KMin                |KMin                
DroidKungFu3        |DroidKungFu3        
DroidKungFu3        |DroidKungFu3        
AnserverBot         |AnserverBot         
AnserverBot         |AnserverBot         
BaseBridge          |BaseBridge          
AnserverBot         |AnserverBot         
ADRD                |ADRD                
ADRD                |ADRD                
AnserverBot         |AnserverBot         
DroidKungFu3        |DroidKungFu3        
Endofday            |Plankton            
DroidKungFu3        |DroidKungFu3        
DroidKungFu3        |DroidKungFu3        
BaseBridge          |BaseBridge          
AnserverBot         |AnserverBot         
DroidKungFu3        |DroidKungFu3        
DroidDreamLight     |DroidDreamLight     
DroidKungFu4        |DroidKungFu4        
DroidKungFu3        |DroidKungFu3        
DroidKungFu3        |DroidKungFu3        
DroidKungFu3        |DroidKungFu3        
BaseBridge          |BaseBridge          
AnserverBot         |AnserverBot         
Pjapps              |Pjapps              
DroidKungFu4        |DroidKungFu4        
DroidKungFu3        |DroidKungFu3        
DroidDream          |DroidDream          
DroidKungFu3        |DroidKungFu3        
DroidKungFu4        |DroidKungFu4        
AnserverBot         |AnserverBot         
DroidKungFu3        |DroidKungFu3        
GoldDream           |BaseBridge          
AnserverBot         |AnserverBot         
AnserverBot         |AnserverBot         
DroidKungFu3        |DroidKungFu3        
AnserverBot         |AnserverBot         
zHash               |zHash               
RogueSPPush         |RogueSPPush         
DroidKungFu3        |DroidKungFu3        
DroidKungFu4        |DroidKungFu4        
DroidKungFu4        |DroidKungFu4        
DroidKungFu3        |DroidKungFu3        
BaseBridge          |Geinimi             
YZHC                |YZHC                
DroidKungFu3        |DroidKungFu3        
DroidKungFu3        |DroidKungFu3        
GoldDream           |GoldDream           
DroidKungFu4        |DroidKungFu4        
DroidKungFu3        |DroidKungFu3        
DroidDreamLight     |DroidDreamLight     
AnserverBot         |AnserverBot         
KMin                |KMin                
DroidKungFu3        |DroidKungFu3        
GoldDream           |GoldDream           
Geinimi             |Geinimi             
DroidKungFu4        |DroidKungFu4        
GoldDream           |GoldDream           
Plankton            |Plankton            
GingerMaster        |AnserverBot         
DroidKungFu1        |DroidKungFu1        
DroidKungFu3        |DroidKungFu3        
Zsone               |Zsone               
BaseBridge          |BaseBridge          
AnserverBot         |AnserverBot         
Geinimi             |Geinimi             
DroidKungFu3        |GGTracker           
BaseBridge          |BaseBridge          
Plankton            |Plankton            
Geinimi             |Geinimi             
BaseBridge          |BaseBridge          
AnserverBot         |AnserverBot         
DroidDreamLight     |GoldDream           
DroidKungFu3        |DroidKungFu3        
DroidDreamLight     |jSMSHider           
DroidKungFu4        |DroidKungFu4        
KMin                |KMin                
DroidKungFu1        |DroidKungFu1        
DroidKungFu4        |DroidKungFu4        
Geinimi             |Geinimi             
DroidDreamLight     |DroidDreamLight     
YZHC                |YZHC                
DroidKungFu3        |DroidKungFu3        
Pjapps              |Pjapps              
DroidKungFu3        |DroidKungFu3        
DroidKungFu3        |DroidKungFu3        
DroidKungFu3        |DroidKungFu3        
AnserverBot         |AnserverBot         
HippoSMS            |BaseBridge          
AnserverBot         |AnserverBot         
Pjapps              |Pjapps              
Gone60              |Gone60              
DroidKungFu2        |DroidKungFu2        
zHash               |zHash               
AnserverBot         |AnserverBot         
AnserverBot         |AnserverBot         
KMin                |KMin                
GoldDream           |GoldDream           
ADRD                |ADRD                
AnserverBot         |AnserverBot         
BaseBridge          |BaseBridge          
DroidKungFu4        |DroidKungFu4        
DroidKungFu3        |DroidKungFu3        
DroidKungFu3        |DroidKungFu3        
DroidKungFu3        |DroidKungFu3        
DroidDreamLight     |DroidDreamLight     
DroidKungFu1        |DroidKungFu1        
Pjapps              |Geinimi             
BaseBridge          |BaseBridge          
FakePlayer          |FakePlayer          
DroidKungFu3        |DroidKungFu3        
AnserverBot         |AnserverBot         
GoldDream           |GoldDream           
DroidKungFu3        |DroidKungFu3        
Geinimi             |Geinimi             
BaseBridge          |BaseBridge          
DroidKungFu3        |DroidKungFu3        
RogueSPPush         |RogueSPPush         
DroidDreamLight     |BaseBridge          
DroidKungFu4        |DroidKungFu4        
DroidKungFu4        |DroidKungFu4        
DroidKungFu3        |DroidKungFu3        
AnserverBot         |AnserverBot         
AnserverBot         |AnserverBot         
BaseBridge          |BaseBridge          
DroidKungFu4        |DroidKungFu4        
DroidKungFu4        |DroidKungFu4        
DroidKungFu3        |DroidKungFu3        
BaseBridge          |BaseBridge          
BaseBridge          |BaseBridge          
KMin                |KMin                
BaseBridge          |BaseBridge          
DroidKungFu3        |DroidKungFu3        
BaseBridge          |BaseBridge          
DroidKungFu2        |DroidKungFu2        
Pjapps              |Pjapps              
Zsone               |Zsone               
DroidDream          |DroidDream          
DroidKungFu3        |DroidKungFu3        
Geinimi             |Geinimi             
DroidKungFu3        |DroidKungFu3        
GoldDream           |GoldDream           
BaseBridge          |BaseBridge          
AnserverBot         |AnserverBot         
DroidDreamLight     |DroidDreamLight     
DroidKungFu2        |DroidKungFu2        
DroidKungFu3        |DroidKungFu3        
BaseBridge          |BaseBridge          
AnserverBot         |AnserverBot         
RogueSPPush         |RogueSPPush         
DroidDreamLight     |DroidDreamLight     
BaseBridge          |BaseBridge          
BaseBridge          |BaseBridge          
BeanBot             |BeanBot             
DroidKungFu4        |DroidKungFu4        
GoldDream           |GoldDream           
DroidKungFu3        |DroidKungFu3        
DroidKungFu4        |DroidKungFu4        
DroidKungFu1        |DroidKungFu1        
Geinimi             |GoldDream           
DroidKungFu2        |DroidKungFu2        
DroidKungFu3        |DroidKungFu3        
AnserverBot         |AnserverBot         
DroidKungFu3        |DroidKungFu3        
DroidDreamLight     |DroidKungFu4        
DroidKungFu3        |DroidKungFu3        
Pjapps              |Pjapps              
DroidKungFu3        |DroidKungFu3        
DroidKungFu3        |DroidKungFu3        
FakePlayer          |FakePlayer          
Bgserv              |Bgserv              
DroidDreamLight     |DroidDreamLight     
DroidKungFu3        |DroidKungFu3        
ADRD                |ADRD                
ADRD                |ADRD                
YZHC                |YZHC                
Gone60              |Gone60              
DroidKungFu3        |DroidKungFu3        
AnserverBot         |AnserverBot         
AnserverBot         |AnserverBot         
DroidKungFu4        |DroidKungFu4        
GoldDream           |GoldDream           
DroidDreamLight     |DroidDreamLight     
BaseBridge          |BaseBridge          
AnserverBot         |AnserverBot         
DroidKungFu4        |DroidKungFu4        
NickySpy            |ADRD                
GingerMaster        |GingerMaster        
Geinimi             |Geinimi             
DroidKungFu4        |DroidKungFu4        
DroidKungFu3        |DroidKungFu3        
DroidKungFu3        |DroidKungFu3        
AnserverBot         |AnserverBot         
Geinimi             |Geinimi             
Zsone               |Zsone               
RogueSPPush         |RogueSPPush         
DroidKungFu2        |DroidKungFu2        
DroidDeluxe         |BaseBridge          
BaseBridge          |BaseBridge          
ADRD                |ADRD                
DroidDreamLight     |DroidDreamLight     
DroidKungFu3        |DroidKungFu3        
AnserverBot         |AnserverBot         
GPSSMSSpy           |GPSSMSSpy           
KMin                |KMin                
DroidKungFu3        |DroidKungFu3        
DroidKungFu3        |DroidKungFu3        
BaseBridge          |BaseBridge          
KMin                |KMin                
DroidKungFu3        |DroidKungFu3        
Geinimi             |Geinimi             
DroidKungFu3        |DroidKungFu3        
GoldDream           |GoldDream           
AnserverBot         |AnserverBot         
DroidKungFu3        |DroidKungFu3        
DroidKungFu4        |DroidKungFu4        
DroidKungFu4        |Pjapps              
DroidKungFu4        |DroidKungFu4        
DroidKungFu3        |DroidKungFu3        
NickySpy            |BaseBridge          
DroidKungFu3        |DroidKungFu3        
DroidKungFu3        |DroidKungFu3        
DroidKungFu4        |DroidKungFu4        
KMin                |KMin                
DroidCoupon         |BaseBridge          
DroidKungFu3        |DroidKungFu3        
Zsone               |Zsone               
BaseBridge          |BaseBridge          
RogueLemon          |DroidKungFu4        
DroidDream          |DroidDream          
jSMSHider           |jSMSHider           
DroidKungFu3        |DroidKungFu3        
AnserverBot         |AnserverBot         
GoldDream           |GoldDream           
Gone60              |Gone60              
DroidKungFu3        |DroidKungFu3        
GoldDream           |GoldDream           
SndApps             |SndApps             
GoldDream           |GoldDream           
DroidKungFu3        |DroidKungFu3        
BaseBridge          |BaseBridge          
DroidKungFu3        |DroidKungFu3        
Geinimi             |GoldDream           
DroidKungFu3        |DroidKungFu3        
DroidDreamLight     |DroidDreamLight     
DroidKungFu1        |DroidKungFu1        
DroidKungFu3        |DroidKungFu3        
Pjapps              |Pjapps              
DroidKungFu4        |DroidKungFu4        
AnserverBot         |AnserverBot         
BaseBridge          |BaseBridge          
DroidKungFu3        |DroidKungFu3        
DroidKungFu3        |DroidKungFu3        
DroidKungFu3        |DroidKungFu3        
DroidDream          |DroidDream          
AnserverBot         |AnserverBot         
DroidKungFu4        |DroidKungFu4        
BaseBridge          |BaseBridge          
BaseBridge          |BaseBridge          
DroidKungFu3        |DroidKungFu3        
KMin                |KMin                
DroidKungFu4        |DroidKungFu4        
AnserverBot         |AnserverBot         
DroidKungFu2        |DroidKungFu2        
Geinimi             |GoldDream           
Pjapps              |Pjapps              
AnserverBot         |AnserverBot         
DroidKungFu3        |DroidKungFu3        
AnserverBot         |AnserverBot         
DroidKungFu3        |DroidKungFu3        
KMin                |KMin                
DroidKungFu4        |DroidKungFu4        
AnserverBot         |AnserverBot         
DroidKungFu3        |DroidKungFu3        
GoldDream           |GoldDream           
AnserverBot         |AnserverBot         
Zsone               |Zsone               
AnserverBot         |AnserverBot         
DroidKungFu3        |DroidKungFu3        
DroidKungFu3        |DroidKungFu3        
DroidDreamLight     |DroidDreamLight     
AnserverBot         |AnserverBot         
DroidKungFu4        |DroidKungFu4        
DroidKungFu4        |DroidKungFu4        
AnserverBot         |AnserverBot         
GPSSMSSpy           |GPSSMSSpy           
BaseBridge          |BaseBridge          
RogueSPPush         |RogueSPPush         
BaseBridge          |BaseBridge          
AnserverBot         |AnserverBot         
DroidKungFu2        |DroidKungFu2        
BaseBridge          |BaseBridge          
BaseBridge          |BaseBridge          
DroidKungFu3        |DroidKungFu3        
Plankton            |DroidDreamLight     
DroidKungFu3        |DroidKungFu3        
DroidKungFu3        |DroidKungFu3        
AnserverBot         |AnserverBot         
AnserverBot         |AnserverBot         
DroidKungFuSapp     |DroidKungFuSapp     
AnserverBot         |AnserverBot         
DroidKungFu4        |DroidKungFu4        
BeanBot             |BeanBot             
DroidKungFu4        |DroidKungFu4        
DroidKungFu3        |DroidKungFu3        
Geinimi             |Geinimi             
DroidKungFu3        |DroidKungFu3        
DroidKungFu3        |DroidKungFu3        
AnserverBot         |AnserverBot         
DroidKungFu3        |DroidKungFu3        
DroidKungFu3        |DroidKungFu3        
AnserverBot         |AnserverBot         
BaseBridge          |NickySpy            
DroidKungFu3        |DroidKungFu3        
AnserverBot         |AnserverBot         
Geinimi             |Geinimi             
BaseBridge          |BaseBridge          
AnserverBot         |AnserverBot         
zHash               |zHash               
DroidKungFu3        |DroidKungFu3        
DroidKungFu3        |DroidKungFu3        
DroidKungFu3        |DroidKungFu3        
DroidKungFu3        |DroidKungFu3        
DroidDreamLight     |DroidDreamLight     
BaseBridge          |BaseBridge          
BaseBridge          |BaseBridge          
BaseBridge          |BaseBridge          
DroidKungFu4        |DroidKungFu4        
DroidKungFu2        |DroidKungFu2        
GoldDream           |GoldDream           
Geinimi             |Geinimi             
AnserverBot         |AnserverBot         
DroidKungFu3        |DroidKungFu3        
Pjapps              |Pjapps              
BaseBridge          |DroidDreamLight     
AnserverBot         |AnserverBot         
BaseBridge          |Geinimi             
DroidKungFu1        |DroidKungFu1        
GoldDream           |GoldDream           
DroidKungFu4        |DroidKungFu4        
DroidKungFu3        |DroidKungFu3        
DroidKungFu3        |DroidKungFu3        
Jifake              |Pjapps              
BaseBridge          |BaseBridge          
ADRD                |ADRD                
DroidKungFu1        |DroidKungFu1        
DroidKungFu2        |DroidKungFu2        
Asroot              |SndApps             
BaseBridge          |BaseBridge          
KMin                |KMin                
GingerMaster        |GingerMaster        
DroidKungFu3        |DroidKungFu3        
DroidKungFu4        |DroidKungFu4        
AnserverBot         |AnserverBot         
Geinimi             |Geinimi             
BaseBridge          |BaseBridge          
KMin                |KMin                
Geinimi             |Geinimi             
BaseBridge          |BaseBridge          
BaseBridge          |LoveTrap            
AnserverBot         |AnserverBot         
BaseBridge          |BaseBridge          
DroidDreamLight     |DroidDreamLight     
DroidKungFu3        |DroidKungFu3        
DroidKungFu3        |DroidKungFu3        
AnserverBot         |AnserverBot         
DroidKungFuSapp     |DroidKungFuSapp     
ADRD                |GamblerSMS          
Pjapps              |Pjapps              
GoldDream           |GoldDream           
DroidKungFu3        |DroidKungFu3        
DroidKungFu3        |DroidKungFu3        
DroidKungFu4        |DroidKungFu4        
DroidKungFu3        |DroidKungFu3        
KMin                |KMin                
Geinimi             |Geinimi             
BaseBridge          |DroidDreamLight     
DroidKungFu3        |DroidKungFu3        
Zsone               |Zsone               
GoldDream           |GoldDream           
DroidKungFu3        |DroidKungFu3        
DroidKungFu3        |DroidKungFu3        
AnserverBot         |AnserverBot         
YZHC                |YZHC                
ADRD                |ADRD                
AnserverBot         |AnserverBot         
Asroot              |Asroot              
DroidKungFu3        |DroidKungFu3        
DroidKungFu3        |DroidKungFu3        
DroidKungFu3        |DroidKungFu3        
DroidKungFu3        |DroidKungFu3        
DroidKungFu3        |DroidKungFu3        
AnserverBot         |AnserverBot         
AnserverBot         |AnserverBot         
AnserverBot         |AnserverBot         
DroidKungFu1        |DroidKungFu1        
BaseBridge          |Asroot              
KMin                |KMin                
DroidKungFu3        |DroidKungFu3        
GoldDream           |GoldDream           
KMin                |KMin                
KMin                |KMin                
DroidDreamLight     |DroidDreamLight     
GPSSMSSpy           |GPSSMSSpy           
GoldDream           |GoldDream           
DroidKungFu3        |DroidKungFu3        
Pjapps              |Pjapps              
BaseBridge          |BaseBridge          
DroidKungFu3        |DroidKungFu3        
DroidKungFu4        |DroidKungFu4        
BaseBridge          |AnserverBot         
DroidKungFu3        |DroidKungFu3        
DroidKungFu4        |DroidKungFu4        
DroidKungFu4        |DroidKungFu4        
DroidKungFu3        |DroidKungFu3        
DroidKungFu3        |DroidKungFu3        
GoldDream           |GoldDream           
AnserverBot         |AnserverBot         
Gone60              |Gone60              
DroidDreamLight     |DroidDreamLight     
Pjapps              |Pjapps              
AnserverBot         |AnserverBot         
KMin                |KMin                
Pjapps              |Pjapps              
DroidKungFu3        |DroidKungFu3        
DroidKungFu1        |DroidKungFu1        
DroidKungFu2        |DroidKungFu2        
Pjapps              |Pjapps              
DroidDream          |DroidDream          
AnserverBot         |AnserverBot         
DroidKungFu1        |DroidKungFu1        
DroidKungFu4        |DroidKungFu4        
GingerMaster        |GingerMaster        
DroidKungFu3        |DroidKungFu3        
AnserverBot         |AnserverBot         
Plankton            |Plankton            
DroidKungFu3        |DroidKungFu3        
DroidKungFu4        |DroidKungFu4        
BaseBridge          |BaseBridge          
AnserverBot         |AnserverBot         
CruseWin            |CruseWin            
YZHC                |YZHC                
BeanBot             |BeanBot             
DroidKungFu3        |DroidKungFu3        
DroidKungFu4        |DroidKungFu4        
Pjapps              |Pjapps              
DroidKungFu3        |DroidKungFu3        
jSMSHider           |jSMSHider           
AnserverBot         |AnserverBot         
KMin                |KMin                
DroidKungFu4        |DroidKungFu4        
Pjapps              |Pjapps              
ADRD                |ADRD                
AnserverBot         |AnserverBot         
DroidKungFu4        |DroidKungFu4        
DroidKungFu3        |DroidKungFu3        
DroidKungFu3        |DroidKungFu3        
GoldDream           |GoldDream           
DroidKungFu4        |DroidKungFu4        
DroidKungFu4        |DroidKungFu4        
zHash               |zHash               
Geinimi             |Geinimi             
DroidKungFu4        |DroidKungFu4        
DroidKungFu3        |DroidKungFu3        
zHash               |zHash               
DroidKungFu3        |DroidKungFu3        
DroidKungFu3        |DroidKungFu3        
ADRD                |ADRD                
DroidKungFu3        |DroidKungFu3        
AnserverBot         |AnserverBot         
DroidKungFu3        |DroidKungFu3        
DroidKungFu3        |DroidKungFu3        
Geinimi             |GoldDream           
DroidKungFu2        |DroidKungFu2        
Bgserv              |Bgserv              
Pjapps              |Pjapps              
jSMSHider           |jSMSHider           
DroidKungFu3        |DroidKungFu3        
Geinimi             |Geinimi             
DroidKungFu2        |DroidKungFu2        
AnserverBot         |AnserverBot         
SndApps             |SndApps             
BaseBridge          |SndApps             
DroidKungFu3        |DroidKungFu3        
DroidKungFu3        |DroidKungFu3        
jSMSHider           |jSMSHider           
DroidKungFu2        |DroidKungFu2        
DroidKungFu3        |DroidKungFu3        
AnserverBot         |AnserverBot         
Geinimi             |Geinimi             
DroidKungFu4        |DroidKungFu4        
AnserverBot         |AnserverBot         
BaseBridge          |BaseBridge          
YZHC                |Geinimi             
KMin                |KMin                
DroidKungFu3        |DroidKungFu3        
DroidKungFu3        |DroidKungFu3        
DroidKungFu3        |DroidKungFu3        
DroidKungFu3        |DroidKungFu3        
BeanBot             |BeanBot             
DroidKungFu3        |DroidKungFu3        
DroidKungFu3        |DroidKungFu3        
AnserverBot         |AnserverBot         
zHash               |zHash               
Pjapps              |Pjapps              
Geinimi             |Geinimi             
Geinimi             |Geinimi             
DroidKungFu1        |DroidKungFu1        
DroidKungFu3        |DroidKungFu3        
DroidKungFu3        |DroidKungFu3        
Geinimi             |Geinimi             
AnserverBot         |AnserverBot         
Geinimi             |Geinimi             
DroidKungFu3        |DroidKungFu3        
DroidKungFu3        |DroidKungFu3        
BaseBridge          |ADRD                
jSMSHider           |jSMSHider           
BaseBridge          |BaseBridge          
zHash               |zHash               
DroidDreamLight     |DroidDreamLight     
ADRD                |GoldDream           
Gone60              |Gone60              
HippoSMS            |CruseWin            
DroidKungFu3        |DroidKungFu3        
BaseBridge          |BaseBridge          
AnserverBot         |AnserverBot         
DroidKungFu1        |DroidKungFu1        
SndApps             |SndApps             
DroidKungFuUpdate   |BaseBridge          
DroidKungFu4        |DroidKungFu4        
DroidKungFu3        |DroidKungFu3        
DroidKungFu3        |DroidKungFu3        
AnserverBot         |AnserverBot         
AnserverBot         |AnserverBot         
DroidKungFu3        |DroidKungFu3        
DroidKungFu4        |DroidKungFu4        
BaseBridge          |BaseBridge          
RogueSPPush         |RogueSPPush         
DroidKungFu3        |DroidKungFu3        
BaseBridge          |BaseBridge          
DroidKungFu3        |DroidKungFu3        
DroidKungFu4        |DroidKungFu4        
Geinimi             |Geinimi             
jSMSHider           |jSMSHider           
DroidKungFu3        |DroidKungFu3        
DroidKungFu4        |DroidKungFu4        
RogueSPPush         |RogueSPPush         
Pjapps              |Pjapps              
Geinimi             |Geinimi             
jSMSHider           |jSMSHider           
KMin                |KMin                
DroidKungFu3        |DroidKungFu3        
DroidKungFu4        |DroidKungFu4        
ADRD                |ADRD                
DroidDream          |DroidDream          
AnserverBot         |AnserverBot         
GoldDream           |GoldDream           
AnserverBot         |AnserverBot         
Geinimi             |Geinimi             
YZHC                |YZHC                
AnserverBot         |AnserverBot         
FakePlayer          |FakePlayer          
Geinimi             |Geinimi             
GoldDream           |GoldDream           
AnserverBot         |AnserverBot         
DroidKungFu3        |DroidKungFu3        
Geinimi             |Geinimi             
Walkinwat           |CruseWin            
DroidKungFu3        |DroidKungFu3        
DroidKungFu1        |DroidKungFu1        
DroidKungFu3        |DroidKungFu3        
BaseBridge          |BaseBridge          
AnserverBot         |AnserverBot         
DroidDream          |DroidDream          
DroidKungFu3        |DroidKungFu3        
DroidKungFu4        |DroidKungFu4        
BaseBridge          |BaseBridge          
Asroot              |Asroot              
DroidKungFu3        |DroidKungFu3        
DroidKungFu3        |DroidKungFu3        
DroidKungFu3        |DroidKungFu3        
DroidKungFu1        |DroidKungFu1        
DroidKungFu4        |DroidKungFu4        
DroidKungFu1        |DroidKungFu1        
KMin                |KMin                
BaseBridge          |BaseBridge          
DroidDreamLight     |DroidDreamLight     
BaseBridge          |BaseBridge          
AnserverBot         |AnserverBot         
DroidDreamLight     |DroidDreamLight     
AnserverBot         |AnserverBot         
DroidKungFu3        |DroidKungFu3        
DroidDream          |DroidDream          
DroidKungFu3        |DroidKungFu3        
KMin                |KMin                
DroidKungFu3        |DroidKungFu3        
DroidKungFu4        |BaseBridge          
YZHC                |YZHC                
Asroot              |Asroot              
BeanBot             |Bgserv              
DroidKungFu3        |DroidKungFu3        
GPSSMSSpy           |GPSSMSSpy           
AnserverBot         |AnserverBot         
AnserverBot         |AnserverBot         
BeanBot             |Pjapps              
Geinimi             |Geinimi             
jSMSHider           |jSMSHider           
YZHC                |Pjapps              
BaseBridge          |BaseBridge          
DroidDreamLight     |DroidDreamLight     
AnserverBot         |AnserverBot         
BaseBridge          |BaseBridge          
BaseBridge          |BaseBridge          
DroidKungFu3        |DroidKungFu3        
AnserverBot         |AnserverBot         
Pjapps              |Pjapps              
Pjapps              |Pjapps              
DroidKungFu4        |DroidKungFu4        
DroidKungFu3        |DroidKungFu3        
DroidKungFu1        |DroidKungFu1        
ADRD                |ADRD                
Geinimi             |Geinimi             
BaseBridge          |BaseBridge          
DroidKungFu3        |DroidKungFu3        
Pjapps              |ADRD                
DroidKungFu3        |DroidKungFu3        
BaseBridge          |DroidDreamLight     
DroidKungFu3        |DroidKungFu3        
Geinimi             |Geinimi             
BaseBridge          |BaseBridge          
BaseBridge          |BaseBridge          
BaseBridge          |BaseBridge          
DroidKungFu4        |DroidKungFu4        
DroidKungFu4        |DroidKungFu4        
DroidKungFu3        |DroidKungFu3        
Pjapps              |Pjapps              
DroidDreamLight     |DroidDreamLight     
DroidDreamLight     |DroidDreamLight     
DroidKungFu3        |DroidKungFu3        
DroidKungFu2        |DroidKungFu2        
AnserverBot         |AnserverBot         
Geinimi             |Geinimi             
DroidDreamLight     |DroidDreamLight     
DroidKungFu3        |DroidKungFu3        
DroidDream          |DroidDream          
KMin                |KMin                
DroidKungFu3        |DroidKungFu3        
Plankton            |Plankton            
DroidDreamLight     |DroidDreamLight     
DroidKungFu3        |DroidKungFu3        
Geinimi             |Geinimi             
FakePlayer          |FakePlayer          
Geinimi             |GoldDream           
DroidKungFu4        |DroidKungFu4        
jSMSHider           |jSMSHider           
AnserverBot         |AnserverBot         
FakePlayer          |FakePlayer          
DroidKungFu2        |DroidKungFu2        
DroidKungFu3        |DroidKungFu3        
DroidKungFu3        |DroidKungFu3        
Geinimi             |Geinimi             
Pjapps              |Pjapps              
DroidKungFu3        |DroidKungFu3        
GoldDream           |GoldDream           
DroidKungFu3        |DroidKungFu3        
DroidKungFu1        |DroidKungFu1        
AnserverBot         |AnserverBot         
YZHC                |YZHC                
DroidKungFu2        |DroidKungFu2        
AnserverBot         |AnserverBot         
GoldDream           |GoldDream           
BaseBridge          |DroidKungFu4        
AnserverBot         |AnserverBot         
DroidKungFu3        |DroidKungFu3        
Geinimi             |Geinimi             
DroidKungFu3        |DroidKungFu3        
FakePlayer          |FakePlayer          
DroidKungFu2        |DroidKungFu2        
RogueLemon          |GoldDream           
Pjapps              |Pjapps              
BaseBridge          |BaseBridge          
BaseBridge          |Geinimi             
DroidKungFu3        |DroidKungFu3        
DroidKungFu3        |DroidKungFu3        
BaseBridge          |BaseBridge          
DroidKungFu2        |DroidKungFu2        
DroidKungFu3        |DroidKungFu3        
DogWars             |ADRD                
DroidKungFu3        |DroidKungFu3        
Gone60              |Gone60              
DroidKungFu1        |DroidKungFu1        
DroidKungFu3        |DroidKungFu3        
KMin                |KMin                
DroidKungFu1        |DroidKungFu1        
AnserverBot         |AnserverBot         
AnserverBot         |AnserverBot         
DroidKungFu3        |DroidKungFu3        
BaseBridge          |BaseBridge          
KMin                |KMin                
DroidKungFu3        |DroidKungFu3        
Pjapps              |Pjapps              
AnserverBot         |AnserverBot         
Bgserv              |Bgserv              
BaseBridge          |BaseBridge          
Plankton            |Plankton            
ADRD                |ADRD                
DroidKungFu3        |DroidKungFu3        
AnserverBot         |AnserverBot         
DroidKungFu3        |DroidKungFu3        
BaseBridge          |Walkinwat           
BaseBridge          |BaseBridge          
GoldDream           |GoldDream           
DroidKungFu4        |DroidKungFu4        
DroidKungFu3        |DroidKungFu3        
AnserverBot         |AnserverBot         
DroidKungFu2        |DroidKungFu2        
Geinimi             |Geinimi             
DroidKungFu4        |DroidKungFu4        
DroidKungFuSapp     |DroidKungFuSapp     
DroidKungFu4        |DroidKungFu4        
NickyBot            |NickySpy            
KMin                |KMin                
KMin                |KMin                
Geinimi             |Geinimi             
DroidKungFu3        |DroidKungFu3        
AnserverBot         |AnserverBot         
Pjapps              |Pjapps              
BaseBridge          |BaseBridge          
AnserverBot         |AnserverBot         
DroidKungFu3        |DroidKungFu3        
DroidKungFu3        |DroidKungFu3        
BaseBridge          |BaseBridge          
DroidKungFu3        |DroidKungFu3        
GPSSMSSpy           |GPSSMSSpy           
AnserverBot         |AnserverBot         
AnserverBot         |AnserverBot         
AnserverBot         |AnserverBot         
DroidKungFu3        |DroidKungFu3        
BaseBridge          |BaseBridge          
DroidKungFu4        |DroidKungFu4        
BaseBridge          |BaseBridge          
Asroot              |Asroot              
AnserverBot         |AnserverBot         
AnserverBot         |AnserverBot         
AnserverBot         |AnserverBot         
KMin                |KMin                
YZHC                |YZHC                
SndApps             |SndApps             
AnserverBot         |AnserverBot         
DroidKungFu4        |DroidKungFu4        
AnserverBot         |AnserverBot         
ADRD                |ADRD                
jSMSHider           |jSMSHider           
DroidKungFu3        |DroidKungFu3        
DroidKungFu3        |DroidKungFu3        
Pjapps              |Pjapps              
DroidKungFu1        |DroidKungFu1        
DroidKungFu3        |DroidKungFu3        
AnserverBot         |AnserverBot         
DroidKungFu3        |DroidKungFu3        
DroidDreamLight     |DroidDreamLight     
DroidKungFu1        |DroidKungFu1        
GoldDream           |GoldDream           
BaseBridge          |BaseBridge          
DroidKungFu4        |DroidKungFu4        
DroidDreamLight     |DroidDreamLight     
BaseBridge          |DroidDreamLight     
DroidKungFu1        |DroidKungFu1        
Zsone               |Zsone               
Asroot              |DroidKungFu3        
Pjapps              |Pjapps              
AnserverBot         |AnserverBot         
Pjapps              |Pjapps              
AnserverBot         |AnserverBot         
DroidKungFu3        |DroidKungFu3        
AnserverBot         |AnserverBot         
FakeNetflix         |SndApps             
Geinimi             |Geinimi             
AnserverBot         |AnserverBot         
YZHC                |YZHC                
DroidKungFu3        |DroidKungFu3        
GoldDream           |GoldDream           
DroidKungFu4        |DroidKungFu4        
KMin                |KMin                
ADRD                |ADRD                
SndApps             |SndApps             
AnserverBot         |AnserverBot         
KMin                |KMin                
YZHC                |YZHC                
Bgserv              |Bgserv              
DroidDream          |DroidDream          
AnserverBot         |AnserverBot         
DroidKungFu2        |DroidKungFu2        
DroidKungFu1        |DroidKungFu1        
Bgserv              |Bgserv              
GoldDream           |GoldDream           
Pjapps              |Pjapps              
Plankton            |Plankton            
DroidDream          |DroidDream          
DroidKungFu1        |DroidKungFu1        
AnserverBot         |AnserverBot         
DroidKungFu3        |DroidKungFu3        
DroidKungFu3        |DroidKungFu3        
DroidDreamLight     |BaseBridge          
jSMSHider           |jSMSHider           
DroidKungFu3        |DroidKungFu3        
DroidKungFu4        |DroidKungFu4        
AnserverBot         |AnserverBot         
DroidKungFu2        |DroidKungFu2        
Geinimi             |Geinimi             
Zsone               |Zsone               
DroidKungFu1        |BaseBridge          
DroidKungFu4        |DroidKungFu4        
DroidKungFu3        |DroidKungFu3        
SndApps             |SndApps             
GoldDream           |GoldDream           
AnserverBot         |AnserverBot         
AnserverBot         |AnserverBot         
ADRD                |KMin                
DroidKungFu3        |DroidKungFu3        
DroidKungFu4        |DroidKungFu4        
DroidKungFu4        |DroidKungFu4        
LoveTrap            |BaseBridge          
DroidDreamLight     |DroidDreamLight     
DroidKungFu3        |DroidKungFu3        
DroidKungFu3        |DroidKungFu3        
ADRD                |ADRD                
DroidKungFu3        |DroidKungFu3        
KMin                |KMin                
DroidKungFu3        |DroidKungFu3        
DroidKungFu1        |DroidKungFu1        
AnserverBot         |AnserverBot         
DroidKungFu3        |DroidKungFu3        
AnserverBot         |AnserverBot         
Pjapps              |Pjapps              
BaseBridge          |BaseBridge          
AnserverBot         |AnserverBot         
DroidKungFu3        |DroidKungFu3        
GoldDream           |GoldDream           
DroidKungFu3        |DroidKungFu3        
GoldDream           |GoldDream           
DroidKungFu2        |DroidKungFu2        
DroidKungFu1        |DroidKungFu1        
DroidKungFu3        |DroidKungFu3        
DroidDreamLight     |BaseBridge          
DroidKungFu3        |DroidKungFu3        
DroidKungFu3        |DroidKungFu3        
AnserverBot         |AnserverBot         
BaseBridge          |BaseBridge          
AnserverBot         |AnserverBot         
jSMSHider           |jSMSHider           
DroidKungFu3        |DroidKungFu3        
DroidKungFu3        |DroidKungFu3        
DroidDreamLight     |DroidDreamLight     
AnserverBot         |AnserverBot         
DroidKungFu4        |DroidKungFu4        
Pjapps              |Pjapps              
DroidKungFu3        |DroidKungFu3        
BaseBridge          |BaseBridge          
DroidKungFu3        |DroidKungFu3        
DroidKungFu3        |DroidKungFu3        
Pjapps              |DroidKungFu2        
AnserverBot         |AnserverBot         
DroidKungFu3        |DroidKungFu3        
DroidKungFu3        |DroidKungFu3        
GGTracker           |DroidKungFu3        
BaseBridge          |BaseBridge          
DroidKungFu3        |DroidKungFu3        
DroidKungFu4        |DroidKungFu4        
HippoSMS            |HippoSMS            
DroidKungFu1        |DroidKungFu1        
AnserverBot         |AnserverBot         
KMin                |KMin                
DroidKungFu3        |DroidKungFu3        
ADRD                |ADRD                
AnserverBot         |AnserverBot         
DroidKungFu3        |DroidKungFu3        
DroidKungFu3        |DroidKungFu3        
Pjapps              |Pjapps              
DroidKungFu3        |DroidKungFu3        
AnserverBot         |AnserverBot         
Geinimi             |Geinimi             
AnserverBot         |AnserverBot         
DroidKungFu3        |DroidKungFu3        
DroidDreamLight     |DroidDreamLight     
Plankton            |Plankton            
BaseBridge          |BaseBridge          
DroidKungFu3        |DroidKungFu3        
KMin                |KMin                
DroidKungFu3        |DroidKungFu3        
DroidKungFu3        |DroidKungFu3        
AnserverBot         |AnserverBot         
Pjapps              |Pjapps              
AnserverBot         |AnserverBot         
AnserverBot         |AnserverBot         
CoinPirate          |DroidKungFu4        
DroidKungFu3        |DroidKungFu3        
Bgserv              |Bgserv              
Pjapps              |Pjapps              
DroidKungFu3        |DroidKungFu3        
BaseBridge          |BaseBridge          
DroidKungFu3        |DroidKungFu3        
Bgserv              |DroidDreamLight     
DroidKungFu3        |DroidKungFu3        
GoldDream           |GoldDream           
Tapsnake            |Asroot              
Spitmo              |AnserverBot         
KMin                |KMin                
AnserverBot         |AnserverBot         
YZHC                |YZHC                
DroidKungFu4        |DroidKungFu4        
DroidKungFu3        |DroidKungFu3        
DroidDreamLight     |DroidDreamLight     
Geinimi             |Geinimi             
GoldDream           |BaseBridge          
GoldDream           |BaseBridge          
AnserverBot         |DroidKungFu4        
DroidKungFu3        |DroidKungFu3        
Pjapps              |Pjapps              
DroidKungFu3        |DroidKungFu3        
AnserverBot         |AnserverBot         
DroidKungFu3        |DroidKungFu3        
Geinimi             |Geinimi             
DroidKungFu3        |DroidKungFu3        
AnserverBot         |AnserverBot         
DroidKungFu3        |DroidKungFu3        
AnserverBot         |BaseBridge          
Geinimi             |Geinimi             
DroidKungFu4        |DroidKungFu4        
DroidKungFu4        |DroidKungFu4        
BaseBridge          |BaseBridge          
DroidKungFu4        |DroidKungFu4        
DroidKungFu3        |DroidKungFu3        
Pjapps              |Pjapps              
total execution time: 3.22465896606
