@relation 'APK_Features-weka.filters.unsupervised.attribute.Remove-V-R1,32-112,221'

@attribute apkName string
@attribute android numeric
@attribute android.util numeric
@attribute android.widget numeric
@attribute android.renderscript numeric
@attribute android.webkit numeric
@attribute android.media numeric
@attribute android.media.effect numeric
@attribute android.media.audiofx numeric
@attribute android.service.textservice numeric
@attribute android.service.dreams numeric
@attribute android.service.notification numeric
@attribute android.service.wallpaper numeric
@attribute android.os numeric
@attribute android.os.storage numeric
@attribute android.content numeric
@attribute android.content.res numeric
@attribute android.content.pm numeric
@attribute android.test numeric
@attribute android.test.suitebuilder numeric
@attribute android.test.suitebuilder.annotation numeric
@attribute android.test.mock numeric
@attribute android.view numeric
@attribute android.view.textservice numeric
@attribute android.view.accessibility numeric
@attribute android.view.inputmethod numeric
@attribute android.view.animation numeric
@attribute android.provider numeric
@attribute android.security numeric
@attribute android.transition numeric
@attribute android.text numeric
@attribute android.text.util numeric
@attribute android.text.format numeric
@attribute android.text.style numeric
@attribute android.text.method numeric
@attribute android.preference numeric
@attribute android.animation numeric
@attribute android.telephony numeric
@attribute android.telephony.gsm numeric
@attribute android.telephony.cdma numeric
@attribute android.sax numeric
@attribute android.graphics numeric
@attribute android.graphics.pdf numeric
@attribute android.graphics.drawable numeric
@attribute android.graphics.drawable.shapes numeric
@attribute android.inputmethodservice numeric
@attribute android.mtp numeric
@attribute android.appwidget numeric
@attribute android.accounts numeric
@attribute android.nfc numeric
@attribute android.nfc.tech numeric
@attribute android.nfc.cardemulation numeric
@attribute android.gesture numeric
@attribute android.accessibilityservice numeric
@attribute android.database numeric
@attribute android.database.sqlite numeric
@attribute android.drm numeric
@attribute android.opengl numeric
@attribute android.location numeric
@attribute android.speech numeric
@attribute android.speech.tts numeric
@attribute android.bluetooth numeric
@attribute android.annotation numeric
@attribute android.print numeric
@attribute android.print.pdf numeric
@attribute android.printservice numeric
@attribute android.hardware.display numeric
@attribute android.hardware numeric
@attribute android.hardware.usb numeric
@attribute android.hardware.location numeric
@attribute android.hardware.input numeric
@attribute android.net numeric
@attribute android.net.rtp numeric
@attribute android.net.wifi numeric
@attribute android.net.wifi.p2p numeric
@attribute android.net.wifi.p2p.nsd numeric
@attribute android.net.nsd numeric
@attribute android.net.sip numeric
@attribute android.net.http numeric
@attribute android.app numeric
@attribute android.app.admin numeric
@attribute android.app.backup numeric
@attribute class {Benign,Malware}

@data

a2z.Mobile.Event2436-17.apk,0,455,741,0,90,4,0,0,0,0,0,0,290,0,634,44,2,0,0,0,0,1062,0,70,16,41,1,0,0,13,0,0,2,1,5,0,0,0,0,0,701,0,58,1,0,0,0,0,0,0,0,0,0,157,41,0,0,7,0,0,0,0,0,0,0,0,64,0,0,0,12,0,0,0,0,0,0,0,507,0,0,Benign
VirusShare_002a9d65d397bdda4755ab50bc5dc571.apk,0,459,457,0,185,30,0,0,0,0,0,0,197,0,251,2,0,0,0,0,0,645,0,0,0,366,0,0,0,2,0,0,0,0,58,0,0,0,0,0,317,0,59,0,0,0,0,0,0,0,0,0,0,75,212,0,0,13,0,0,0,0,0,0,0,0,22,0,0,0,1,0,0,0,0,0,0,0,239,0,0,Malware
VirusShare_70c86a39e6975e99c89068f425046786.apk,0,3,27,0,0,0,0,0,0,0,0,0,5,0,53,3,0,0,0,0,0,32,0,0,0,2,1,0,0,8,0,0,4,0,0,0,2,0,0,0,0,0,0,0,0,0,0,0,0,0,0,0,0,0,0,0,0,0,0,0,0,0,0,0,0,0,0,0,0,0,0,0,0,0,0,0,0,0,60,0,0,Malware
appinventor.ai_BrianChitiyo.Afristream_copy-6.apk,0,562,192,0,26,52,0,0,0,0,0,0,197,0,132,2,0,0,0,0,0,152,0,0,3,8,0,0,0,1,1,14,0,1,0,0,1,0,0,0,39,0,15,3,0,0,0,3,7,4,0,0,0,16,0,0,0,9,0,6,0,0,0,0,0,0,10,0,0,0,0,0,0,0,0,0,0,0,155,0,0,Benign
br.com.couldsys.harmonicafree-4.apk,0,319,318,0,79,6,0,0,0,0,0,0,12225,0,545,11,4,0,0,0,0,477,0,54,0,91,0,0,0,4,0,0,0,1,0,0,0,0,0,0,103,0,80,4,0,0,0,4,0,0,0,0,0,164,58,0,0,7,0,0,0,0,0,0,0,0,0,0,0,0,25,0,0,0,0,0,0,0,331,0,0,Benign
air.lxjj.com.BathroomFashionshow-1000000.apk,0,172,176,0,113,10,0,0,0,0,0,0,109,0,268,3,5,0,0,0,0,268,0,0,8,0,0,0,0,5,1,3,0,0,0,0,3,0,0,0,95,0,5,2,0,0,0,0,0,0,0,7,0,31,21,0,0,11,0,0,0,0,0,0,0,0,18,0,0,2,11,0,0,0,0,0,0,1,264,0,0,Benign
VirusShare_d627ad93c5e97ee1703d324b6ae56907.apk,0,2,7,0,2,0,0,0,0,0,0,0,8,0,4,0,0,0,0,0,0,55,0,0,0,0,0,0,0,0,0,0,0,0,0,0,1,0,0,0,1,0,5,0,0,0,0,0,0,0,0,0,0,0,0,0,0,0,0,0,0,0,0,0,0,0,0,0,0,0,0,0,0,0,0,0,0,0,65,0,0,Malware
air.com.capitan.Main-1009008.apk,0,1,0,0,0,0,0,0,0,0,0,0,1,0,4,1,1,0,0,0,0,0,0,0,0,0,0,0,0,0,0,0,0,0,0,0,0,0,0,0,0,0,0,0,0,0,0,0,0,0,0,0,0,0,0,0,0,0,0,0,0,0,0,0,0,0,0,0,0,0,0,0,0,0,0,0,0,0,41,0,0,Benign
VirusShare_30bbcecfad1246ffc397a63cad3bce6c.apk,0,0,0,0,0,0,0,0,0,0,0,0,0,0,0,0,0,0,0,0,0,0,0,0,0,0,0,0,0,0,0,0,0,0,0,0,0,0,0,0,0,0,0,0,0,0,0,0,0,0,0,0,0,0,0,0,0,0,0,0,0,0,0,0,0,0,0,0,0,0,0,0,0,0,0,0,0,0,0,0,0,Malware
blueoffice.app-21.apk,0,196,1776,0,83,51,0,0,0,0,0,0,687,0,858,30,0,0,0,0,0,2009,0,29,12,86,0,0,0,15,0,0,4,0,0,0,14,0,0,0,368,0,132,2,0,0,0,0,0,0,0,0,0,88,164,0,11,24,0,0,0,0,0,0,0,0,5,0,0,0,5,0,3,0,0,0,0,0,478,0,0,Benign
air.com.yudu.ReaderAIR3206267-3016000.apk,0,73,97,0,32,9,0,0,0,0,0,0,87,0,133,1,1,0,0,0,0,190,0,0,8,0,0,0,0,5,1,3,0,0,0,0,3,0,0,0,72,0,3,2,0,0,0,0,0,0,0,0,0,12,0,0,0,5,0,0,0,0,0,0,0,0,18,0,0,2,1,0,0,0,0,0,0,1,156,0,0,Benign
